<svg width="595" height="643" viewBox="0 0 595 643" fill="none" xmlns="http://www.w3.org/2000/svg">
<g clip-path="url(#clip0_136_133)">
<path d="M64.25 48.0938H224.875V0H64.25C28.8121 0 0 28.7561 0 64.125V448.875C0 484.244 28.8121 513 64.25 513H68.2656C103.704 513 130.508 498.271 130.508 462.902H82.3203C69.2695 464.906 77.1 464.906 68.2656 464.906H64.25C55.4156 464.906 48.1875 457.692 48.1875 448.875V64.125C48.1875 55.3078 55.4156 48.0938 64.25 48.0938ZM281.094 0C267.742 0 257 10.7209 257 24.0469C257 37.3729 267.742 48.0938 281.094 48.0938C383.091 48.0938 465.812 130.655 465.812 232.453C465.812 245.779 476.554 256.5 489.906 256.5C503.258 256.5 514 245.779 514 232.453C514 104.103 409.694 0 281.094 0ZM289.125 256.5C297.645 256.5 305.816 253.122 311.841 247.109C317.865 241.096 321.25 232.941 321.25 224.438C321.25 215.934 317.865 207.779 311.841 201.766C305.816 195.753 297.645 192.375 289.125 192.375C280.605 192.375 272.434 195.753 266.409 201.766C260.385 207.779 257 215.934 257 224.438C257 232.941 260.385 241.096 266.409 247.109C272.434 253.122 280.605 256.5 289.125 256.5ZM257 120.234C257 133.56 267.742 144.281 281.094 144.281C329.884 144.281 369.438 183.758 369.438 232.453C369.438 245.779 380.179 256.5 393.531 256.5C406.883 256.5 417.625 245.779 417.625 232.453C417.625 157.206 356.487 96.1875 281.094 96.1875C267.742 96.1875 257 106.908 257 120.234Z" fill="#56A43E"/>
</g>
<g clip-path="url(#clip1_136_133)">
<path d="M546.906 338.208C546.906 329.385 539.692 322.167 530.875 322.167L146.125 322.167C137.308 322.167 130.094 329.385 130.094 338.208L130.094 562.791C130.094 571.614 137.308 578.833 146.125 578.833L530.875 578.833C539.692 578.833 546.906 571.614 546.906 562.791V338.208ZM530.875 274.042C566.244 274.042 595 302.816 595 338.208L595 562.791C595 598.183 566.244 626.958 530.875 626.958L146.125 626.958C110.756 626.958 82 598.183 82 562.791L82 338.208C82 302.816 110.756 274.042 146.125 274.042L530.875 274.042ZM194.219 418.416V482.583C194.219 491.406 187.005 498.625 178.188 498.625C169.37 498.625 162.156 491.406 162.156 482.583V418.416C162.156 409.594 169.37 402.375 178.188 402.375C187.005 402.375 194.219 409.594 194.219 418.416Z" fill="#56A43E"/>
</g>
<defs>
<clipPath id="clip0_136_133">
<rect width="514" height="513" fill="white"/>
</clipPath>
<clipPath id="clip1_136_133">
<rect width="385" height="513" fill="white" transform="matrix(0 1 -1 0 595 258)"/>
</clipPath>
</defs>
</svg>
