<svg width="577" height="512" viewBox="0 0 577 512" fill="none" xmlns="http://www.w3.org/2000/svg">
<g clip-path="url(#clip0_136_150)">
<path d="M192.4 201.9L304.5 102.3V409.7L192.4 310.1C188 306.2 182.3 304 176.5 304H88.5C84.1 304 80.5 300.4 80.5 296V216C80.5 211.6 84.1 208 88.5 208H176.5C182.4 208 188.1 205.8 192.4 201.9ZM322.7 32C315.4 32 308.4 34.7 302.9 39.5L167.4 160H88.5C57.6 160 32.5 185.1 32.5 216V296C32.5 326.9 57.6 352 88.5 352H167.4L302.9 472.5C308.4 477.3 315.4 480 322.7 480C339.2 480 352.5 466.7 352.5 450.2V61.8C352.5 45.3 339.2 32 322.7 32ZM505.6 107C495.3 98.6 480.2 100.2 471.8 110.5C463.4 120.8 465 135.9 475.3 144.3C507.8 170.7 528.5 210.9 528.5 256C528.5 301.1 507.8 341.3 475.3 367.8C465 376.2 463.5 391.3 471.8 401.6C480.1 411.9 495.3 413.4 505.6 405.1C548.8 369.9 576.5 316.2 576.5 256.1C576.5 196 548.8 142.3 505.6 107.1V107ZM445.1 181.5C434.8 173.1 419.7 174.7 411.3 185C402.9 195.3 404.5 210.4 414.8 218.8C425.6 227.6 432.5 241 432.5 256C432.5 271 425.6 284.4 414.8 293.3C404.5 301.7 403 316.8 411.3 327.1C419.6 337.4 434.8 338.9 445.1 330.6C466.6 312.9 480.5 286.1 480.5 256C480.5 225.9 466.6 199.1 445.1 181.5Z" fill="#56A43E"/>
</g>
<defs>
<clipPath id="clip0_136_150">
<rect width="576" height="512" fill="white" transform="translate(0.5)"/>
</clipPath>
</defs>
</svg>
