<svg width="513" height="512" viewBox="0 0 513 512" fill="none" xmlns="http://www.w3.org/2000/svg">
<g clip-path="url(#clip0_136_125)">
<path d="M0.5 56V136C0.5 149.3 11.2 160 24.5 160C37.8 160 48.5 149.3 48.5 136V56C48.5 51.6 52.1 48 56.5 48H136.5C149.8 48 160.5 37.3 160.5 24C160.5 10.7 149.8 0 136.5 0H56.5C25.6 0 0.5 25.1 0.5 56ZM352.5 24C352.5 37.3 363.2 48 376.5 48H456.5C460.9 48 464.5 51.6 464.5 56V136C464.5 149.3 475.2 160 488.5 160C501.8 160 512.5 149.3 512.5 136V56C512.5 25.1 487.4 0 456.5 0H376.5C363.2 0 352.5 10.7 352.5 24ZM24.5 352C11.2 352 0.5 362.7 0.5 376V456C0.5 486.9 25.6 512 56.5 512H136.5C149.8 512 160.5 501.3 160.5 488C160.5 474.7 149.8 464 136.5 464H56.5C52.1 464 48.5 460.4 48.5 456V376C48.5 362.7 37.8 352 24.5 352ZM488.5 352C475.2 352 464.5 362.7 464.5 376V456C464.5 460.4 460.9 464 456.5 464H376.5C363.2 464 352.5 474.7 352.5 488C352.5 501.3 363.2 512 376.5 512H456.5C487.4 512 512.5 486.9 512.5 456V376C512.5 362.7 501.8 352 488.5 352Z" fill="#56A43E"/>
<g clip-path="url(#clip1_136_125)">
<path d="M94.0938 255.5C94.0938 165.51 167.01 92.5938 257 92.5938C306.42 92.5938 350.671 114.602 380.589 149.376C387.325 157.286 399.23 158.148 407.062 151.412C414.894 144.677 415.834 132.772 409.098 124.94C372.366 82.0988 317.855 55 257 55C146.255 55 56.5 144.755 56.5 255.5V286.828C56.5 297.245 64.8803 305.625 75.2969 305.625C85.7135 305.625 94.0938 297.245 94.0938 286.828V255.5ZM453.192 214.069C451.078 203.887 441.053 197.386 430.949 199.579C420.846 201.772 414.267 211.719 416.46 221.822C418.731 232.709 419.985 243.987 419.985 255.578V286.906C419.985 297.323 428.365 305.703 438.781 305.703C449.198 305.703 457.578 297.323 457.578 286.906V255.5C457.578 241.324 456.09 227.461 453.271 214.069H453.192ZM257 117.656C242.119 117.656 227.708 120.006 214.315 124.392C202.411 128.308 199.67 142.954 207.815 152.509C213.376 159.009 222.539 160.967 230.841 158.696C239.143 156.425 247.915 155.25 257 155.25C312.372 155.25 357.25 200.128 357.25 255.5V275.002C357.25 294.738 356.075 314.397 353.804 333.977C352.472 345.412 361.166 355.75 372.757 355.75C381.999 355.75 389.91 349.014 391.006 339.851C393.591 318.391 394.922 296.775 394.922 275.08V255.5C394.922 179.373 333.206 117.656 257.078 117.656H257ZM174.529 171.462C167.402 163.16 154.714 162.534 147.978 171.149C129.886 194.41 119.156 223.702 119.156 255.5V275.002C119.156 293.955 117.12 312.909 113.047 331.314C110.384 343.532 119.235 355.75 131.766 355.75C139.989 355.75 147.352 350.268 149.153 342.201C154.165 320.193 156.75 297.715 156.75 275.002V255.5C156.75 234.197 163.407 214.46 174.685 198.248C180.324 190.103 180.951 178.981 174.529 171.462ZM332.188 255.5C332.188 213.99 298.51 180.312 257 180.312C215.49 180.312 181.812 213.99 181.812 255.5V275.002C181.812 303.119 178.21 331.001 171.004 358.1C168.028 369.299 176.252 380.812 187.843 380.812C195.284 380.812 201.863 375.957 203.821 368.751C212.044 338.206 216.273 306.721 216.273 275.002V255.5C216.273 233.022 234.522 214.773 257 214.773C279.478 214.773 297.727 233.022 297.727 255.5V275.002C297.727 303.432 294.985 331.706 289.581 359.509C287.467 370.396 295.612 380.812 306.655 380.812C314.644 380.812 321.536 375.33 323.102 367.498C329.133 337.11 332.188 306.173 332.188 275.002V255.5ZM257 236.703C246.583 236.703 238.203 245.083 238.203 255.5V275.002C238.203 321.916 229.588 368.438 212.749 412.219L208.128 424.202C204.369 433.914 209.225 444.8 218.936 448.481C228.648 452.162 239.535 447.385 243.216 437.673L247.837 425.69C266.32 377.601 275.797 326.537 275.797 275.002V255.5C275.797 245.083 267.417 236.703 257 236.703Z" fill="#56A43E"/>
</g>
</g>
<defs>
<clipPath id="clip0_136_125">
<rect width="512" height="512" fill="white" transform="translate(0.5)"/>
</clipPath>
<clipPath id="clip1_136_125">
<rect width="401" height="401" fill="white" transform="translate(56.5 55)"/>
</clipPath>
</defs>
</svg>
