<svg width="385" height="512" viewBox="0 0 385 512" fill="none" xmlns="http://www.w3.org/2000/svg">
<g clip-path="url(#clip0_136_117)">
<path d="M182.6 2.10001C191.2 -1.79999 201.3 -0.299986 208.4 6.00001L344.4 126C349.7 130.7 352.6 137.4 352.5 144.4C352.4 151.4 349.2 158 343.8 162.5L230.3 256L343.8 349.5C349.2 354 352.4 360.6 352.5 367.6C352.6 374.6 349.7 381.4 344.4 386L208.4 506C201.3 512.2 191.2 513.8 182.6 509.9C174 506 168.5 497.4 168.5 488V306.9L71.8 386.5C61.6 394.9 46.4 393.5 38 383.2C29.6 372.9 31 357.8 41.3 349.4L154.7 256L41.2 162.5C31 154.1 29.5 139 38 128.7C46.5 118.4 61.6 117 71.8 125.4L168.5 205.1V24C168.5 14.6 174 6.00001 182.6 2.10001ZM216.5 306.9V434.9L291.5 368.7L216.5 306.9ZM216.5 205.2L291.5 143.4L216.5 77.2V205.2Z" fill="#56A43E"/>
</g>
<defs>
<clipPath id="clip0_136_117">
<rect width="384" height="512" fill="white" transform="translate(0.5)"/>
</clipPath>
</defs>
</svg>
