<svg width="513" height="512" viewBox="0 0 513 512" fill="none" xmlns="http://www.w3.org/2000/svg">
<g clip-path="url(#clip0_136_121)">
<path d="M192.5 112H64.5C55.7 112 48.5 119.2 48.5 128V192H156.6C180.1 162.7 216.1 144 256.5 144C296.9 144 333 162.7 356.4 192H464.5V96C464.5 87.2 457.3 80 448.5 80H271.6C269.1 80 266.7 80.6 264.4 81.7L213.9 106.9C207.2 110.2 199.9 112 192.4 112H192.5ZM48.5 240V416C48.5 424.8 55.7 432 64.5 432H448.5C457.3 432 464.5 424.8 464.5 416V240H380.5C383.1 250.2 384.5 261 384.5 272C384.5 342.7 327.2 400 256.5 400C185.8 400 128.5 342.7 128.5 272C128.5 261 129.9 250.2 132.5 240H48.5ZM0.5 416V128C0.5 92.7 29.2 64 64.5 64V48C64.5 39.2 71.7 32 80.5 32H144.5C153.3 32 160.5 39.2 160.5 48V64H192.5L243 38.8C251.9 34.4 261.7 32 271.6 32H448.5C483.8 32 512.5 60.7 512.5 96V416C512.5 451.3 483.8 480 448.5 480H64.5C29.2 480 0.5 451.3 0.5 416ZM336.5 272C336.5 250.783 328.071 230.434 313.069 215.431C298.066 200.429 277.717 192 256.5 192C235.283 192 214.934 200.429 199.931 215.431C184.929 230.434 176.5 250.783 176.5 272C176.5 293.217 184.929 313.566 199.931 328.569C214.934 343.571 235.283 352 256.5 352C277.717 352 298.066 343.571 313.069 328.569C328.071 313.566 336.5 293.217 336.5 272Z" fill="#56A43E"/>
</g>
<defs>
<clipPath id="clip0_136_121">
<rect width="512" height="512" fill="white" transform="translate(0.5)"/>
</clipPath>
</defs>
</svg>
