<svg width="385" height="513" viewBox="0 0 385 513" fill="none" xmlns="http://www.w3.org/2000/svg">
<path d="M80.2083 48.0938C71.3854 48.0938 64.1667 55.3078 64.1667 64.125L64.1667 448.875C64.1667 457.692 71.3854 464.906 80.2083 464.906H304.792C313.615 464.906 320.833 457.692 320.833 448.875L320.833 64.125C320.833 55.3078 313.615 48.0938 304.792 48.0938L80.2083 48.0938ZM16.0417 64.125C16.0417 28.7561 44.8164 0 80.2083 0L304.792 0C340.184 0 368.958 28.7561 368.958 64.125L368.958 448.875C368.958 484.244 340.184 513 304.792 513H80.2083C44.8164 513 16.0417 484.244 16.0417 448.875L16.0417 64.125ZM160.417 415.781H224.583C233.406 415.781 240.625 422.995 240.625 431.812C240.625 440.63 233.406 447.844 224.583 447.844H160.417C151.594 447.844 144.375 440.63 144.375 431.812C144.375 422.995 151.594 415.781 160.417 415.781Z" fill="#56A43E"/>
<path d="M157 54H107C87.6875 54 72 69.6875 72 89V139C72 147.312 78.6875 154 87 154C95.3125 154 102 147.312 102 139V89C102 86.25 104.25 84 107 84H157C165.312 84 172 77.3125 172 69C172 60.6875 165.312 54 157 54Z" fill="#56A43E"/>
<path d="M228 393H278C297.312 393 313 377.312 313 358V308C313 299.688 306.312 293 298 293C289.688 293 283 299.688 283 308V358C283 360.75 280.75 363 278 363H228C219.688 363 213 369.688 213 378C213 386.312 219.688 393 228 393Z" fill="#56A43E"/>
</svg>
